{
  "images" : [
    {
      "filename" : "Trazado 2502.png",
      "idiom" : "universal",
      "scale" : "1x"
    },
    {
      "filename" : "Trazado 2502@2x.png",
      "idiom" : "universal",
      "scale" : "2x"
    },
    {
      "filename" : "Trazado 2502@3x.png",
      "idiom" : "universal",
      "scale" : "3x"
    }
  ],
  "info" : {
    "author" : "xcode",
    "version" : 1
  }
}
